[gd_scene load_steps=4 format=2]

[ext_resource path="res://Source/SceneTransition/SceneTransition.gd" type="Script" id=1]

[sub_resource type="Animation" id=2]
resource_name = "Fade"
step = 0.01
tracks/0/type = "value"
tracks/0/path = NodePath(".:color")
tracks/0/interp = 1
tracks/0/loop_wrap = true
tracks/0/imported = false
tracks/0/enabled = true
tracks/0/keys = {
"times": PoolRealArray( 0, 1 ),
"transitions": PoolRealArray( 1, 1 ),
"update": 0,
"values": [ Color( 0, 0, 0, 0 ), Color( 0, 0, 0, 1 ) ]
}

[sub_resource type="Animation" id=1]
length = 0.001
tracks/0/type = "value"
tracks/0/path = NodePath(".:color")
tracks/0/interp = 1
tracks/0/loop_wrap = true
tracks/0/imported = false
tracks/0/enabled = true
tracks/0/keys = {
"times": PoolRealArray( 0 ),
"transitions": PoolRealArray( 1 ),
"update": 0,
"values": [ Color( 0, 0, 0, 0 ) ]
}

[node name="TransitionScreen" type="CanvasLayer"]
script = ExtResource( 1 )

[node name="Bg" type="ColorRect" parent="."]
anchor_right = 1.0
anchor_bottom = 1.0
mouse_filter = 2
color = Color( 0, 0, 0, 0 )
__meta__ = {
"_edit_use_anchors_": false
}

[node name="AnimationPlayer" type="AnimationPlayer" parent="Bg"]
anims/Fade = SubResource( 2 )
anims/RESET = SubResource( 1 )
